<svg width="25" height="21" viewBox="0 0 25 21" fill="none" xmlns="http://www.w3.org/2000/svg">
<path d="M21.8008 5.67712C21.8008 5.89587 21.8008 6.11462 21.8008 6.30212C21.8008 12.7709 16.8633 20.2396 7.86328 20.2396C5.08203 20.2396 2.51953 19.4271 0.332031 18.0521C0.707031 18.0834 1.11328 18.1146 1.48828 18.1146C3.76953 18.1146 5.89453 17.3334 7.58203 16.0209C5.42578 15.9896 3.61328 14.5521 3.01953 12.6146C3.33203 12.6771 3.61328 12.7084 3.95703 12.7084C4.39453 12.7084 4.83203 12.6459 5.23828 12.5209C2.98828 12.0834 1.30078 10.1146 1.30078 7.73962C1.30078 7.70837 1.30078 7.70837 1.30078 7.67712C1.95703 8.05212 2.70703 8.27087 3.51953 8.30212C2.20703 7.42712 1.33203 5.92712 1.33203 4.20837C1.33203 3.30212 1.58203 2.45837 1.98828 1.73962C4.39453 4.70837 8.01953 6.64587 12.082 6.86462C11.9883 6.52087 11.957 6.11462 11.957 5.73962C11.957 3.02087 14.1445 0.833374 16.8633 0.833374C18.2695 0.833374 19.5508 1.42712 20.4258 2.36462C21.5508 2.14587 22.582 1.73962 23.5508 1.17712C23.1758 2.33337 22.3945 3.27087 21.3945 3.89587C22.3945 3.77087 23.332 3.52087 24.207 3.11462C23.582 4.11462 22.7695 4.98962 21.8008 5.67712Z" fill="white"/>
</svg>
