<svg width="35" height="35" viewBox="0 0 35 35" fill="none" xmlns="http://www.w3.org/2000/svg">
<circle cx="17.5" cy="17.5" r="13.125" stroke="#FF6666" stroke-width="2"/>
<path d="M10.9375 17.5H24.0625" stroke="#FF6666" stroke-width="2"/>
</svg>